{
"configurations": {
  "C - Launch": {
    "adapter": "vscode-cpptools",
    "configuration": {
      "name": "Cpp: Launch current file",
      "type": "cppdbg",
      "request": "launch",
      "externalConsole": true,
      "logging": {
        "engineLogging": true
      },
      "stopOnEntry": true,
      "stopAtEntry": true,
      "debugOptions": [],
      "MIMode": "gdb",
      "cwd": "${cwd}",
      "program": "${fileDirname}/a.out"
    }
  }} }
